…
```r
library(dplyr) # For some basic data massaging
library(tidyr) # Also for some basic data massaging
library(ggplot2) # For the plots
```

Next, we will be using our `nla_wq_subset` data.  To remind you it looks like:


```r
tbl_df(nla_wq_subset)  
```

```
## # A tibble: 1,086 × 9
##          SITE_ID RT_NLA  EPA_REG WSA_ECO9 LAKE_ORIGIN   PTL   NTL  CHLA
##            <chr>  <chr>    <chr>    <chr>       <chr> <int> <int> <dbl>
## 1  NLA06608-0001    REF Region_8      WMT     NATURAL     6   151  0.24
## 2  NLA06608-0002  SO-SO Region_4      CPL    MAN-MADE    36   695  3.84
## 3  NLA06608-0003  TRASH Region_6      CPL     NATURAL    43   738 16.96
## 4  NLA06608-0004  SO-SO Region_8      WMT    MAN-MADE    18   344  4.60
## 5  NLA06608-0006    REF Region_1      NAP    MAN-MADE     7   184  4.08
## 6  NLA06608-0007    REF Region_5      UMW     NATURAL     8   493  2.43
## 7  NLA06608-0008  SO-SO Region_7      TPL    MAN-MADE    66   801 30.24
## 8  NLA06608-0010  SO-SO Region_5      UMW     NATURAL    10   473  4.38
## 9  NLA06608-0012  TRASH Region_6      SPL    MAN-MADE   159  1026  4.90
## 10 NLA06608-0013  SO-SO Region_2      CPL    MAN-MADE    28   384 16.03
## # ... with 1,076 more rows, and 1 more variables: SECMEAN <dbl>
```
…
